{
    "name": "Sentry integration",
    "identifier": "sentry-integration",
    "version": "2.0.0",
    "description": "Error handling using Sentry's PHP SDK.",
    "providers": [
        "Modules\\SentryIntegration\\Providers\\SentryServiceProvider"
    ]
}
